…
흰색 : 관측치 없음.

SK
==

``` r
Card %>% separate(HDONG_CD, into = c("GU_CD", "DONG_CD"), sep = 3) %>%
  mutate(GU_CD = recode(GU_CD, "110" = "1111", "350" = "1135")) %>%
  unite(HDONG_CD, GU_CD, "DONG_CD", sep = "")
```

    ## # A tibble: 1,998,575 x 8
    ## # Groups:   STD_DD [365]
    ##    STD_DD     HDONG_CD MCT_CAT_CD SEX_CD AGE_CD USE_CNT USE_AMT AGE   
    ##    <chr>      <chr>         <int> <chr>   <int>   <int>   <int> <fct> 
    ##  1 2018-04-01 11110515         21 F          55       4      22 Middle
    ##  2 2018-04-01 11110515         21 M          20      35     184 Youth 
    ##  3 2018-04-01 11110515         21 M          25      70     425 Rising
    ##  4 2018-04-01 11110515         21 M          30      18      82 Rising
    ##  5 2018-04-01 11110515         21 M          35       4      44 Rising
    ##  6 2018-04-01 11110515         22 F          20       4      18 Youth 
    ##  7 2018-04-01 11110515         22 F          25       4     158 Rising
    ##  8 2018-04-01 11110515         22 F          45       4      26 Middle
    ##  9 2018-04-01 11110515         22 M          25       4      35 Rising
    ## 10 2018-04-01 11110515         22 M          30      13     329 Rising
    ## # ... with 1,998,565 more rows
…
